^C:\USERS\CHINN\DROPBOX\NOTES\OOD\MY PROJ\PROJECT4\CLI-SHIM\DEBUG\.NETFRAMEWORK,VERSION=V4.5.2.ASSEMBLYATTRIBUTES.OBJ|C:\USERS\CHINN\DROPBOX\NOTES\OOD\MY PROJ\PROJECT4\CLI-SHIM\DEBUG\CLISHIM.OBJ|C:\USERS\CHINN\DROPBOX\NOTES\OOD\MY PROJ\PROJECT4\DEBUG\CLIENT.LIB|C:\USERS\CHINN\DROPBOX\NOTES\OOD\MY PROJ\PROJECT4\DEBUG\CPP11-BLOCKINGQUEUE.LIB|C:\USERS\CHINN\DROPBOX\NOTES\OOD\MY PROJ\PROJECT4\DEBUG\FILESYSTEM.LIB|C:\USERS\CHINN\DROPBOX\NOTES\OOD\MY PROJ\PROJECT4\DEBUG\HTTPMESSAGE.LIB|C:\USERS\CHINN\DROPBOX\NOTES\OOD\MY PROJ\PROJECT4\DEBUG\LOGGER.LIB|C:\USERS\CHINN\DROPBOX\NOTES\OOD\MY PROJ\PROJECT4\DEBUG\SOCKETS.LIB|C:\USERS\CHINN\DROPBOX\NOTES\OOD\MY PROJ\PROJECT4\DEBUG\UTILITIES.LIB|C:\USERS\CHINN\DROPBOX\NOTES\OOD\MY PROJ\PROJECT4\DEBUG\ZWINDOWSHELPERS.LIB
C:\USERS\CHINN\DROPBOX\NOTES\OOD\MY PROJ\PROJECT4\DEBUG\CLISHIM.DLL
C:\USERS\CHINN\DROPBOX\NOTES\OOD\MY PROJ\PROJECT4\DEBUG\CLISHIM.PDB
